%YAML 1.1
%TAG !u! tag:unity3d.com,2011:
--- !u!1001 &4245477357221662351
PrefabInstance:
  m_ObjectHideFlags: 0
  serializedVersion: 2
  m_Modification:
    m_TransformParent: {fileID: 0}
    m_Modifications:
    - target: {fileID: 4714980096035912675, guid: cedb3ae6ddbb8e34282457df8f301380,
        type: 3}
      propertyPath: m_Name
      value: P_Tree2 Variant
      objectReference: {fileID: 0}
    - target: {fileID: 8589948552738179568, guid: cedb3ae6ddbb8e34282457df8f301380,
        type: 3}
      propertyPath: m_LocalPosition.x
      value: 93.35092
      objectReference: {fileID: 0}
    - target: {fileID: 8589948552738179568, guid: cedb3ae6ddbb8e34282457df8f301380,
        type: 3}
      propertyPath: m_LocalPosition.y
      value: 0.0073432922
      objectReference: {fileID: 0}
    - target: {fileID: 8589948552738179568, guid: cedb3ae6ddbb8e34282457df8f301380,
        type: 3}
      propertyPath: m_LocalPosition.z
      value: 78.558075
      objectReference: {fileID: 0}
    - target: {fileID: 8589948552738179568, guid: cedb3ae6ddbb8e34282457df8f301380,
        type: 3}
      propertyPath: m_LocalRotation.x
      value: -0.7071068
      objectReference: {fileID: 0}
    - target: {fileID: 8589948552738179568, guid: cedb3ae6ddbb8e34282457df8f301380,
        type: 3}
      propertyPath: m_LocalRotation.y
      value: 0
      objectReference: {fileID: 0}
    - target: {fileID: 8589948552738179568, guid: cedb3ae6ddbb8e34282457df8f301380,
        type: 3}
      propertyPath: m_LocalRotation.z
      value: -0
      objectReference: {fileID: 0}
    - target: {fileID: 8589948552738179568, guid: cedb3ae6ddbb8e34282457df8f301380,
        type: 3}
      propertyPath: m_LocalRotation.w
      value: 0.7071067
      objectReference: {fileID: 0}
    - target: {fileID: 8589948552738179568, guid: cedb3ae6ddbb8e34282457df8f301380,
        type: 3}
      propertyPath: m_RootOrder
      value: 0
      objectReference: {fileID: 0}
    - target: {fileID: 8589948552738179568, guid: cedb3ae6ddbb8e34282457df8f301380,
        type: 3}
      propertyPath: m_LocalEulerAnglesHint.x
      value: 0
      objectReference: {fileID: 0}
    - target: {fileID: 8589948552738179568, guid: cedb3ae6ddbb8e34282457df8f301380,
        type: 3}
      propertyPath: m_LocalEulerAnglesHint.y
      value: 0
      objectReference: {fileID: 0}
    - target: {fileID: 8589948552738179568, guid: cedb3ae6ddbb8e34282457df8f301380,
        type: 3}
      propertyPath: m_LocalEulerAnglesHint.z
      value: 0
      objectReference: {fileID: 0}
    - target: {fileID: 8589948552738179568, guid: cedb3ae6ddbb8e34282457df8f301380,
        type: 3}
      propertyPath: m_LocalScale.x
      value: 100
      objectReference: {fileID: 0}
    - target: {fileID: 8589948552738179568, guid: cedb3ae6ddbb8e34282457df8f301380,
        type: 3}
      propertyPath: m_LocalScale.y
      value: 100
      objectReference: {fileID: 0}
    - target: {fileID: 8589948552738179568, guid: cedb3ae6ddbb8e34282457df8f301380,
        type: 3}
      propertyPath: m_LocalScale.z
      value: 100
      objectReference: {fileID: 0}
    m_RemovedComponents: []
  m_SourcePrefab: {fileID: 100100000, guid: cedb3ae6ddbb8e34282457df8f301380, type: 3}
