%YAML 1.1
%TAG !u! tag:unity3d.com,2011:
--- !u!114 &11400000
MonoBehaviour:
  m_ObjectHideFlags: 0
  m_CorrespondingSourceObject: {fileID: 0}
  m_PrefabInstance: {fileID: 0}
  m_PrefabAsset: {fileID: 0}
  m_GameObject: {fileID: 0}
  m_Enabled: 1
  m_EditorHideFlags: 0
  m_Script: {fileID: 11500000, guid: 34a7c8ca992f915438a96c2077353778, type: 3}
  m_Name: SadBehaviour
  m_EditorClassIdentifier: 
  brickName: Assets/Tanguy/SadBehaviour.asset
  xml: "\uFEFF<?xml version=\"1.0\" encoding=\"utf-8\"?>\n<BehaviorBricks xmlns:ref=\"urn:padaone\"
    version=\"1.0\">\n  <BehaviorTree id=\"0\" />\n  <runtimeInfo>\n    <BehaviorTree
    id=\"0\" guid=\"25abce24bb4b44be6bdf873b5c968c8e\" nextId=\"4\">\n      <root>\n
    \       <SequenceNode id=\"1\" />\n      </root>\n      <inputParams>\n        <inputValues>\n
    \         <entry name=\"HouseArea\" type=\"UnityEngine.GameObject\" isBlackboard=\"False\"
    />\n        </inputValues>\n      </inputParams>\n      <outputParams />\n      <localParams
    />\n    </BehaviorTree>\n    <SequenceNode id=\"1\">\n      <children>\n        <elem>\n
    \         <ActionNode id=\"2\" />\n        </elem>\n        <elem>\n          <ActionNode
    id=\"3\" />\n        </elem>\n      </children>\n      <inputParams />\n      <outputParams
    />\n      <localParams />\n    </SequenceNode>\n    <ActionNode id=\"2\" action=\"Navigation/MoveToRandomPosition\">\n
    \     <inputParams>\n        <inputValues>\n          <entry name=\"area\" type=\"UnityEngine.GameObject\"
    isBlackboard=\"True\" blackboard=\"HouseArea\" />\n        </inputValues>\n      </inputParams>\n
    \     <outputParams />\n      <localParams />\n    </ActionNode>\n    <ActionNode
    id=\"3\" action=\"Basic/WaitForSeconds\">\n      <inputParams>\n        <inputValues>\n
    \         <entry name=\"seconds\" type=\"System.Single\" isBlackboard=\"False\"
    value=\"3\" />\n        </inputValues>\n      </inputParams>\n      <outputParams
    />\n      <localParams />\n    </ActionNode>\n  </runtimeInfo>\n  <editorInfo>\n
    \   <BehaviorTree id=\"0\" _name=\"SadBehaviour\" _description=\"\" _removeIfClosed=\"False\">\n
    \     <_rootList>\n        <elem>\n          <SequenceNode id=\"1\" />\n        </elem>\n
    \       <elem>\n          <ActionNode id=\"2\" />\n        </elem>\n        <elem>\n
    \         <ActionNode id=\"3\" />\n        </elem>\n      </_rootList>\n      <_nodes>\n
    \       <nodes>\n          <SequenceNode id=\"1\" />\n          <ActionNode id=\"2\"
    />\n          <ActionNode id=\"3\" />\n        </nodes>\n      </_nodes>\n    </BehaviorTree>\n
    \   <SequenceNode id=\"1\">\n      <_data>\n        <data breakpoint=\"0\" selected=\"False\"
    position=\"202.505 191\" name=\"Sequence\" description=\"Executes all its children
    in sequence until all of them are successful\" cardinality=\"-1\" hasParent=\"False\">\n
    \         <BehaviorTree id=\"0\" />\n          <SequenceNode id=\"1\" />\n        </data>\n
    \     </_data>\n    </SequenceNode>\n    <ActionNode id=\"2\">\n      <_data>\n
    \       <data breakpoint=\"0\" selected=\"False\" position=\"-38 354\" name=\"Navigation/MoveToRandomPosition\"
    description=\"Gets a random position from a given area and moves the game object
    to that point by using a NavMeshAgent\" cardinality=\"0\" hasParent=\"True\">\n
    \         <BehaviorTree id=\"0\" />\n          <ActionNode id=\"2\" />\n          <SequenceNode
    id=\"1\" />\n        </data>\n      </_data>\n    </ActionNode>\n    <ActionNode
    id=\"3\">\n      <_data>\n        <data breakpoint=\"0\" selected=\"False\" position=\"258
    344\" name=\"Basic/WaitForSeconds\" description=\"Action that success after a
    period of time.\" cardinality=\"0\" hasParent=\"True\">\n          <BehaviorTree
    id=\"0\" />\n          <ActionNode id=\"3\" />\n          <SequenceNode id=\"1\"
    />\n        </data>\n      </_data>\n    </ActionNode>\n  </editorInfo>\n</BehaviorBricks>"
  zoom: 0.5
  subslist: []
  _guid: 25abce24bb4b44be6bdf873b5c968c8e
